[
    {
    "date": "Sept 31, 3313",
    "description": "Some gems have hidden qualities beyond their luster, beyond their shine... Azurite is one of those gems."
    },
    {
    "date": "November 26, 6512",
    "description": "Some gems have hidden qualities beyond their luster, beyond their shine... Azurite is one of those gems."
    },
    {
    "date": "August 23, 313",
    "description": "Some gems have hidden qualities beyond their luster, beyond their shine... Azurite is one of those gems."
    },
    {
    "date": "Sept 31, 3313",
    "description": "Some gems have hidden qualities beyond their luster, beyond their shine... Azurite is one of those gems."
    },
    {
    "date": "November 26, 6512",
    "description": "Some gems have hidden qualities beyond their luster, beyond their shine... Azurite is one of those gems."
    },
    {
    "date": "August 23, 313",
    "description": "Some gems have hidden qualities beyond their luster, beyond their shine... Azurite is one of those gems."
    },
    {
    "date": "July 54, 313",
    "description": "Some gems have hidden qualities beyond their luster, beyond their shine... Azurite is one of those gems."
    }
]